…
``` r
firefly_mass <- read_csv("https://whitlockschluter.zoology.ubc.ca/wp-content/data/chapter02/chap02q19FireflySpermatophoreMass.csv")
```

    ## 
    ## -- Column specification --------------------------------------------------------
    ## cols(
    ##   spermatophoreMass = col_double()
    ## )

``` r
firefly_mass
```

    ## # A tibble: 35 x 1
    ##    spermatophoreMass
    ##                <dbl>
    ##  1             0.047
    ##  2             0.037
    ##  3             0.041
    ##  4             0.045
    ##  5             0.039
    ##  6             0.064
    ##  7             0.064
    ##  8             0.065
    ##  9             0.079
    ## 10             0.07 
    ## # ... with 25 more rows
…
> H. How many orders are there? You can get this right by counting on
> the graph, but you will only get full points if you use some code to
> figure it out.

There are 41 orders of bird species. This value was found utilizing the
count function.

``` r
count(birds,order)
```

    ## # A tibble: 41 x 2
    ##    order                n
    ##    <chr>            <int>
    ##  1 Accipitriformes    252
    ##  2 Anseriformes       178
    ##  3 Apterygiformes       5
    ##  4 Bucerotiformes      72
    ##  5 Caprimulgiformes   597
    ##  6 Cariamiformes        2
    ##  7 Casuariiformes       4
    ##  8 Cathartiformes       7
    ##  9 Charadriiformes    379
    ## 10 Ciconiiformes       19
    ## # ... with 31 more rows
…
